開始時;きんにくは すべてを かいけつするわ！
攻撃時;ぬぅぅぅん！
ダメージ時;ぬふっ！
撃破時;たんれんが たりないわ！
食事;むーしゃ むーしゃ
食事;しあわせー！
食事;それなりー
食事;にがいわっ これ どくはいってる！
食事;からいわっ これ どくはいってる！
レベルアップ;きんにくが えきさいとしてるわ！
死亡;もっと ゆっくり したかった……
ゆっくす;ぱちぇと みらいを つむぎましょう！
ゆっくす;ねじりきってやるわ！
歩き：元気;ふんっ！はぁっ！
歩き：弱り;ふー……ふー……
歩き：餓え;このままでは きんにくが なえてしまうわ……
姉妹身代わり待機;しょせん このよは じゃくにくきょうしょく……
姉妹身代わり解除;きんにくが かいけつしてくれるわ！
姉妹身代わり発動;もやしは ふようだわ！
姉妹身代わり受け;おねえちゃぁぁぁぁ！　ぱちぇを みすてないでぇぇぇぇぇ！
溺死;ゆぼぼぼぼぼぼ……
