開始時;ちーんぴょ！
攻撃時;ちんぴょっ！
ダメージ時;ちんぴょぉぉぉぉ……
撃破時;ちんぴょっ！
食事;むーちゃ むーちゃ
食事;ちーんぴょ！
食事;ちーんぴょ
食事;ちんぴょっ！？ちーんぴょ！
食事;ちんぴょっ！？ちーんぴょ！
レベルアップ;ぼっき！
死亡;ちんぴょ ぼっき……
ゆっくす;びっぎゅまぎゅなみゅ！
ゆっくす;たんちょー……
歩き：元気;ちんぴょ！ちんぴょ！
歩き：弱り;ほうきぇい……
歩き：餓え;びゃいゆぎゅら……
姉妹身代わり待機;ちんぴょぅ……
姉妹身代わり解除;ぺにちゅ！
姉妹身代わり発動;でかまりゃっ！
姉妹身代わり受け;そうりょう！ほうきぇい！たんちょぉぉぉぉ！
溺死;ちんびょびょびょびょびょびょ……
