開始時;ゆゆきょは たくっしゃん たべりゅわ！
攻撃時;こぼにぇー！
ダメージ時;こぼにぇっ！？
撃破時;ゆゆきょの すーぱー むーちゃむーちゃたいみゅ はじみゃりゅよー！
食事;むーちゃ むーちゃ
しあわしぇー！;しゃあわしぇ！
食事;しょれにゃりー
食事;にぎゃいわっ おちょなの あじにぇっ！
食事;かりゃいわっ ちげきちぇきな あじにぇっ！
レベルアップ;しょくとうしとして たきゃみを めざしゅわ！
死亡;もっちょ　たくっしゃん たべちゃかっちゃ……
ゆっくす;ちぎゃういみで たべちゃうわぁぁぁぁ！
ゆっくす;ゆゆきょが たべりゃれりゅばんなにょぉぉぉぉ！？
歩き：元気;こーぼーにぇー　こーぼーにぇー
歩き：弱り;こぼにぇぇ……
歩き：餓え;ゆゆきょ むーちゃ　むーちゃ しゅる……！
姉妹身代わり待機;ゆゆきょは まぢゃまぢゃ たべちゃいにょよ……
姉妹身代わり解除;ひじょうっちょくを しゅちぇるのは もっちゃいにゃいわにぇ！
姉妹身代わり発動;がんばっちぇね！ ゆゆきょの ひじょうっちょく！
姉妹身代わり受け;やぢゃやぢゃ！ゆゆきょが たべりゅのぉぉぉぉ！
溺死;ゆぼぼぼぼぼぼぼ……
