開始時;システム キドウ
攻撃時;テキ コウゲキ
ダメージ時;ダメージ ハッセイ
撃破時;モクヒョウ タッセイ
HPアップ;ボウギョセイノウ キョウカ
STアップ;サイダイＥＮキョウカ
STRアップ;コウゲキセイノウ キョウカ
AGIアップ;キドウセイノウ キョウカ
食事;
レベルアップ;
死亡;キタイ ハソン サクセン チュウダン
ゆっくす;
ゆっくす;
歩き：元気;… …
歩き：弱り;キタイ ソンショウ キケン キケン
歩き：餓え;ＥＮゲンショウ キケン キケン
姉妹身代わり待機;
姉妹身代わり解除;
姉妹身代わり発動;
姉妹身代わり受け;
溺死;テキオウガイ キケン キケン
