開始時;… …
攻撃時;… … ！！
ダメージ時;… … ！？
撃破時;… …  … … ！
食事;… … 
食事;… … 
食事;… … 
食事;… … 
食事;… … 
レベルアップ;… … ！！
死亡;… … ！？
ゆっくす;… … 
ゆっくす;… … 
歩き：元気;… … 
歩き：弱り;… … 　… … 
歩き：餓え;… …  … … ！
姉妹身代わり待機;… … 
姉妹身代わり解除;… … 
姉妹身代わり発動;… … 
姉妹身代わり受け;… … 
溺死;… … 
