開始時;にとりは いきっぬくんだよ！
攻撃時;かぱー！
ダメージ時;かっぱぁぁぁぁ！？
撃破時;しりこだまは いただいたんだよ！
食事;むーしゃ むーしゃ
食事;しあわせー！
食事;それなりー
食事;にがいんだよっ これ どくはいってるんだよ！
食事;からいんだよっ これ どくはいってるんだよ！
レベルアップ;さいっしん もでるに ばーじょんあっぷ だよ！
死亡;もっと ゆっくり したかった……
ゆっくす;にとりと いっしょになろうね……
ゆっくす;やめてぇ！そこはしりこだまー！
歩き：元気;ゆっくり！ ゆっくり！
歩き：弱り;ゆぅ…… ゆぅぅぅ……
歩き：餓え;にとり おなか ぺーこぺーこ なんだよ……
姉妹身代わり待機;にとりは いきぬくんだよ……
姉妹身代わり解除;ほかにも ほうっほうが あるはずなんだよ！
姉妹身代わり発動;にとりは にげるよっ すたこらさっさっ！
姉妹身代わり受け;おねえちゃぁぁぁぁ！　にとりを みすてるなぁぁぁぁぁ！
溺死;にとりは すいちゅうの えきすぱーと！
