開始時;ぱちぇは いきぬいてみせるわ……
攻撃時;あふれる ちせいで かえりうちよ
ダメージ時;ゆんやぁぁぁぁぁ！
撃破時;とうっぜんの けつまつだわ
食事;むーしゃ むーしゃ
食事;しあわせー！
食事;それなりー
食事;にがいわっ これ どくはいってる！
食事;からいわっ これ どくはいってる！
レベルアップ;せかいの しんりに ちかづいたわ
死亡;もっと ゆっくり したかった……
ゆっくす;ぱちぇと みらいを つむぎましょう！
ゆっくす;えれえれえれえれ……
歩き：元気;むきゅぅ！むきゅぅ！
歩き：弱り;むきゅ……むきゅぅぅぅ……
歩き：餓え;おなかが ぺーこぺーこだわ……
姉妹身代わり待機;ぱちぇは いきぬかなければ　ならないのよ……
姉妹身代わり解除;けんっめいな かんがえでは なかったわ……
姉妹身代わり発動;もりのけんじゃの いしずえになれることを よろこびなさい！
姉妹身代わり受け;おねえちゃぁぁぁぁ！　ぱちぇを みすてないでぇぇぇぇぇ！
溺死;ゆぼぼぼぼぼぼ……
