開始時;つむりは いきっぬくのぜ！
攻撃時;すーぱー つむり あたっく なのぜ！
ダメージ時;ゆんやぁぁぁぁぁ！
撃破時;つむりさまは さいっきょう なのぜ！
食事;むーしゃ むーしゃ
食事;しあわせー！
食事;それなりー
食事;にがいよっ これ どくはいってる！
食事;からいよっ これ どくはいってる
レベルアップ;つむりは さいっきょうに ちかづいたのぜ！
死亡;もっと ゆっくり したかった……
ゆっくす;つむりと あいの けっしょうを つくるのぜ！
ゆっくす;つむり おとーさんに なりたかったのぜ……
歩き：元気;ゆっくり！ ゆっくり！
歩き：弱り;ゆぅ…… ゆぅぅぅ……
歩き：餓え;つむり おなか ぺーこぺーこ なのぜ……
姉妹身代わり待機;つむりは いきぬくのぜ……
姉妹身代わり解除;よからぬ かんっがえが あんこさんを よぎったのぜ！
姉妹身代わり発動;つむりは にげるよっ すたこらさっさっ！
姉妹身代わり受け;おねえちゃぁぁぁぁ！　つむりを みすてるなぁぁぁぁぁ！
溺死;おみずさんは きもちいいのぜ！
