開始時;ちぇんは いきっぬくんだよー！
攻撃時;やっつけるんだよー！
ダメージ時;わからないよぉぉぉぉ！
撃破時;ちぇんの かちなんだねー！
食事;むーしゃ むーしゃ
食事;しあわせー！
食事;それなりー
食事;にがいよっ これ どくはいってるぉぉぉぉ！
食事;からいよっ これ どくはいってるぉぉぉぉ！
レベルアップ;つよくなったんだねー！ わかるよー！
死亡;もっと ゆっくり したかったよ……
ゆっくす;ちぇんと けっこんするんだよー！
ゆっくす;らんしゃまぁぁぁぁ わがんないよぉぉぉぉ！
歩き：元気;わかるよー！
歩き：弱り;わかんないよー……
歩き：餓え;おなかすいたんだよー わかんないよー……
姉妹身代わり待機;ちぇんは いきぬくんだよー……
姉妹身代わり解除;よくない ことだったね わかるよー！
姉妹身代わり発動;ちぇんは いきぬくんだよー　わかれよー！
姉妹身代わり受け;おねえちゃぁぁぁぁ！　わかんないよぉぉぉぉぉ！
溺死;ゆぼぼぼぼぼぼ……
