開始時;どすは ゆっくりするのぜ
攻撃時;すーぱー どす あたっく なのぜ
ダメージ時;ゆんやぁぁぁぁぁ！
撃破時;どすは とっても ゆっくりしてるのぜ
食事;むーしゃ むーしゃ
食事;しあわせー！
食事;それなりー
食事;にがいよっ これ どくはいってる！
食事;からいよっ これ どくはいってる！
レベルアップ;どすは もーっと ゆっくりするのぜ
死亡;もっと ゆっくり したかった……
ゆっくす;
ゆっくす;
歩き：元気;ゆっくり！ ゆっくり！
歩き：弱り;ゆぅ…… ゆぅぅぅ……
歩き：餓え;おなか ぺーこぺーこ なのぜ……
スパーク待機;くらうのぜ！
スパーク解除;やっぱりやめるのぜ
スパーク発動;どすすぱぁぁぁぁく！！
姉妹身代わり受け;
溺死;ゆぼぼぼぼぼぼ……
