開始時;れいむは いきっぬくんだよ！
攻撃時;やっつけるんだよ！
ダメージ時;ゆんやぁぁぁぁぁ！
撃破時;れいむは ほかとは ちがうんだよ！
食事;むーしゃ むーしゃ
食事;しあわせー！
食事;それなりー
食事;にがいよっ これ どくはいってる
食事;からいよっ これ どくはいってる
レベルアップ;れいむは じだいの さいっせんたん だよ！
死亡;もっと ゆっくり したかった……
ゆっくす;れいむと あいの けっしょうを つくろうね！
ゆっくす;れいむが かわいすぎるから いけないのぉぉぉぉ！？
歩き：元気;ゆっくり！ ゆっくり！
歩き：弱り;ゆぅ…… ゆぅぅぅ……
歩き：餓え;れいむ おなか ぺーこぺーこ だよ……
姉妹身代わり待機;れいむは いきぬくんだよ……
姉妹身代わり解除;よからぬ かんっがえが あんこさんを よぎったんだよ！？
姉妹身代わり発動;れいむは にげるよっ すたこらさっさっ！
姉妹身代わり受け;おねえちゃぁぁぁぁ！　れいむを みすてるなぁぁぁぁぁ！
溺死;ゆぼぼぼぼぼぼ……
