開始時;きんにきゅは しゅべちぇを かいけちゅしゅるわ！
攻撃時;にゅぅぅぅん！
ダメージ時;にゅふっ！
撃破時;たんりぇんが ちゃりにゃいわ！
食事;むーちゃ むーちゃ
食事;ちゃぁわしぇー！
食事;しょれなりー
食事;にぎゃいわっ こりぇ どきゅはいっちぇる！
食事;かりゃいわっ こりぇ どきゅはいっちぇる！
レベルアップ;きんにきゅが えきしゃいちょしちぇりゅわ！
死亡;もっちょ　ゆっくち しちゃかっちゃ……
ゆっくす;ぱちぇと みりゃいを ちゅむぎまちょう！
ゆっくす;ねじりきっちぇやりゅわ！
歩き：元気;ふゅんっ！はぁっ！
歩き：弱り;ふー……ふー……
歩き：餓え;このままぢぇは きんにきゅが にゃえてちまうわ……
姉妹身代わり待機;ちょせん こにょよは じゃくにきゅきょうちょく……
姉妹身代わり解除;きんにきゅが かいけちゅしてくりぇるわ！
姉妹身代わり発動;もやちは ふようぢゃわ！
姉妹身代わり受け;おねえちゃぁぁぁぁ！　ぱちぇを みしゅちぇにゃいでぇぇぇぇぇ！
溺死;ゆぼぼぼぼぼぼ……
