開始時;ゆかりんは いきぬくわ！
攻撃時;あいてをしてあげるわ！
ダメージ時;いたいわっ
撃破時;ゆかりんの びぼうのまえに ひれふしなさい！
食事;むーしゃ むーしゃ
食事;しあわせー！
食事;それなりー
食事;にがいわっ これ どくはいってるわっ！
食事;からいわっ これ どくはいってるわっ！
レベルアップ;ゆかりん つよくって こまっちゃーう
死亡;もっと ゆっかり したかった……
ゆっくす;ことしの うすいほんの しゅやくは わたしよぉぉぉぉ
ゆっくす;あーん いけませんわぁぁぁぁ
歩き：元気;ゆっかり！ ゆっかり！
歩き：弱り;ゆぅ…… ゆぅぅぅ……
歩き：餓え;ゆかりん おなか ぺーこ ぺーこ だわ……
姉妹身代わり待機;ゆかりんは いきぬくわ……
姉妹身代わり解除;いいかんがえでは なかったわ……
姉妹身代わり発動;ゆかりんは にげるわ！ すたこらさっさ！
姉妹身代わり受け;いやぁぁぁぁ ゆかりん おそわれちゃうぅぅぅぅ
溺死;ゆぼぼぼぼぼぼぼ……
